[gd_scene load_steps=4 format=2]

[ext_resource path="res://scenes/mg_projectile.gd" type="Script" id=1]
[ext_resource path="res://data/sprites/mg_projectile.png" type="Texture" id=2]

[sub_resource type="RectangleShape2D" id=1]
extents = Vector2( 2.15504, 2.15656 )

[node name="KinematicBody2D" type="KinematicBody2D"]
position = Vector2( -0.568962, 1.53182 )
script = ExtResource( 1 )

[node name="Sprite" type="Sprite" parent="."]
texture = ExtResource( 2 )

[node name="CollisionShape2D" type="CollisionShape2D" parent="."]
position = Vector2( 0.568964, -1.66312 )
shape = SubResource( 1 )
